%YAML 1.1
%TAG !u! tag:unity3d.com,2011:
--- !u!114 &11400000
MonoBehaviour:
  m_ObjectHideFlags: 0
  m_CorrespondingSourceObject: {fileID: 0}
  m_PrefabInternal: {fileID: 0}
  m_GameObject: {fileID: 0}
  m_Enabled: 1
  m_EditorHideFlags: 0
  m_Script: {fileID: 11500000, guid: 54d21f6ece3b46479f0c328f8c6007e0, type: 3}
  m_Name: New TMP Color Gradient
  m_EditorClassIdentifier: 
  topLeft: {r: 1, g: 0.9156184, b: 0.6745283, a: 1}
  topRight: {r: 1, g: 0.894605, b: 0.8160377, a: 1}
  bottomLeft: {r: 1, g: 0.63512623, b: 0, a: 1}
  bottomRight: {r: 1, g: 0.76138896, b: 0.33490568, a: 1}
