%YAML 1.1
%TAG !u! tag:unity3d.com,2011:
--- !u!1045 &1
EditorBuildSettings:
  m_ObjectHideFlags: 0
  serializedVersion: 2
  m_Scenes:
  - enabled: 1
    path: Assets/Scenes/Menu.unity
    guid: f12ec04a0a7130d4fbaf0c40b5eac7a8
  - enabled: 1
    path: Assets/Scenes/Desert.unity
    guid: 99c9720ab356a0642a771bea13969a05
  - enabled: 1
    path: Assets/Scenes/Winter.unity
    guid: 3540a15341616ac4bb234cf26364830d
  - enabled: 1
    path: Assets/Scenes/Forest.unity
    guid: 6e434770a7e9af947923dc9bbc63f752
  - enabled: 1
    path: Assets/Scenes/WinningScene.unity
    guid: fc7471c908cd74346aa0d6a8cf155212
  - enabled: 1
    path: Assets/Scenes/Loading.unity
    guid: c42067861866e2049ae2bc3fed453829
  m_configObjects: {}
